{
  "name": "Example",
  "simple_version": 3,
  "HashExample": {
    "hash_value": 1,
    "hash_value2": 2
  },
  "MultiHash": {
    "multientity1": {
      "multivalue": 1
    },
    "multientity2": {
      "multivalue": 1
    }
  }
}
